;; -*- mode: skk-jisyo-edit; encoding: utf-8-unix; minor-mode: auto-composition-mode -*-
;; Licence: CC0 1.0 https://creativecommons.org/publicdomain/zero/1.0/deed
;;
;;

'a /ɐ/ɑ/ɒ/ʌ;ア,[u]mbrella/eɪ;エイ,m[ai]n/
'b /ɓ/
'e /ɘ/ə/ɛ/ɜ/
'ae /æ/
'o /ɔ/
'i /ɪ/

'th /θ/ð/
'ng /ŋ/
'sh /ʃ/
'z /ʒ; 鯵のジ/
'f /ɸ; フ+日本語でのファ行,古語でのハ行/
'w /β̞; ワ/w; wood,唇を丸める/



